^C:\USERS\0DEMO\SOURCE\REPOS\CHESS\CHESS\DEBUG\CHESS.OBJ
C:\USERS\0DEMO\SOURCE\REPOS\CHESS\DEBUG\CHESS.EXE
C:\USERS\0DEMO\SOURCE\REPOS\CHESS\DEBUG\CHESS.ILK
C:\USERS\0DEMO\SOURCE\REPOS\CHESS\DEBUG\CHESS.PDB
